\relax 
\@writefile{toc}{\contentsline {section}{\numberline {1}Simflowny installation and configuration}{4}{section.1}}
\newlabel{introduction}{{1}{4}{Simflowny installation and configuration\relax }{section.1}{}}
\@writefile{toc}{\contentsline {subsection}{\numberline {1.1}System requirements}{4}{subsection.1.1}}
\citation{usersGuide}
\@writefile{toc}{\contentsline {subsection}{\numberline {1.2}Installation}{5}{subsection.1.2}}
\@writefile{toc}{\contentsline {subsection}{\numberline {1.3}Essential configuration}{5}{subsection.1.3}}
\@writefile{toc}{\contentsline {subsubsection}{CactusCodeConnectorPlugin.properties and simPlat.properties}{6}{section*.2}}
\@writefile{toc}{\contentsline {subsection}{\numberline {1.4}Advanced configuration}{6}{subsection.1.4}}
\@writefile{toc}{\contentsline {subsubsection}{CodesDBPlugin.properties}{6}{section*.3}}
\@writefile{toc}{\contentsline {subsubsection}{garbageCollector.properties}{6}{section*.3}}
\@writefile{toc}{\contentsline {subsubsection}{SimulationManagerPlugin.properties}{6}{section*.3}}
\@writefile{toc}{\contentsline {subsubsection}{mathms.properties}{6}{section*.3}}
\@writefile{toc}{\contentsline {subsubsection}{UserManagerPlugin.properties}{6}{section*.3}}
\citation{cactusWeb}
\citation{SamraiWeb}
\@writefile{toc}{\contentsline {subsubsection}{config.properties and run.conf}{7}{section*.3}}
\@writefile{toc}{\contentsline {subsection}{\numberline {1.5}Local and remote simulation environments}{7}{subsection.1.5}}
\@setckpt{tex/introduction}{
\setcounter{page}{8}
\setcounter{equation}{0}
\setcounter{enumi}{0}
\setcounter{enumii}{0}
\setcounter{enumiii}{0}
\setcounter{enumiv}{0}
\setcounter{footnote}{0}
\setcounter{mpfootnote}{0}
\setcounter{part}{0}
\setcounter{section}{1}
\setcounter{subsection}{5}
\setcounter{subsubsection}{0}
\setcounter{paragraph}{0}
\setcounter{subparagraph}{0}
\setcounter{figure}{0}
\setcounter{table}{0}
\setcounter{ContinuedFloat}{0}
\setcounter{Item}{0}
\setcounter{Hfootnote}{0}
\setcounter{section@level}{0}
}
