\relax 
\citation{unicoreInstallGuide}
\@writefile{toc}{\contentsline {section}{\numberline {3}Unicore installation and configuration}{9}{section.3}}
\newlabel{section2}{{3}{9}{Unicore installation and configuration\relax }{section.3}{}}
\newlabel{LastPage}{{3}{9}{Unicore installation and configuration\relax }{section.3}{}}
\@setckpt{tex/section2}{
\setcounter{page}{10}
\setcounter{equation}{0}
\setcounter{enumi}{0}
\setcounter{enumii}{0}
\setcounter{enumiii}{0}
\setcounter{enumiv}{0}
\setcounter{footnote}{0}
\setcounter{mpfootnote}{0}
\setcounter{part}{0}
\setcounter{section}{3}
\setcounter{subsection}{0}
\setcounter{subsubsection}{0}
\setcounter{paragraph}{0}
\setcounter{subparagraph}{0}
\setcounter{figure}{0}
\setcounter{table}{0}
\setcounter{ContinuedFloat}{0}
\setcounter{Item}{0}
\setcounter{Hfootnote}{0}
\setcounter{section@level}{0}
}
