[{
    "xtype": "panel",
    "id": "mathMLHelpers",
    "border": false,
    "layout": {
        "type": "hbox",
        "align": "stretch"
    },
    "items": [{
        "title": "Time",
        "titleCollapse": true,
        "collapsible": true,
        "xtype": "panel",
        "width": 250,
        "border": false,
        "hideCollapseTool": true,
        "titleAlign": "left",
        "layout": {
            "type": "vbox",
            "align": "stretch"
        },
        "items": [{
        	"xtype": "button",
        	"id": "insertIter",
            "text": "Iteration Number",
            "cls": "botonSimml",
            "textAlign": "left",
            "value": "$iter"
        }, {
        	"xtype": "button",
        	"id": "insertCurrt",
            "text": "Current Time",
            "cls": "botonSimml",
            "textAlign": "left",
            "value": "$ct"
        }]
    }, {
        "title": "Agent",
        "titleCollapse": true,
        "collapsible": true,
        "xtype": "panel",
        "width": 250,
        "border": false,
        "hideCollapseTool": true,
        "titleAlign": "left",
        "layout": {
            "type": "vbox",
            "align": "stretch"
        },
        "items": [{
        	"xtype": "button",
        	"id":"insertCa",
            "text": "Current Agent",
            "cls": "botonSimml",
            "textAlign": "left",
            "value": "$ca"
        }, {
        	"xtype": "button",
        	"id":"insertNoa",
            "text": "Global number of agents",
            "cls": "botonSimml",
            "textAlign": "left",
            "value": "$gnoa"
        }]
    }, {
        "title": "Neighbourhood",
        "titleCollapse": true,
        "collapsible": true,
        "xtype": "panel",
        "width": 250,
        "border": false,
        "hideCollapseTool": true,
        "titleAlign": "left",
        "layout": {
            "type": "vbox",
            "align": "stretch"
        },
        "items": [{
        	"xtype": "button",
        	"id":"insertNa",
            "text": "Neighbour agent",
            "cls": "botonSimml",
            "textAlign": "left",
            "value": "$na"
        }, {
        	"xtype": "button",
        	"id":"insertIr",
            "text": "Influence radius",
            "cls": "botonSimml",
            "textAlign": "left",
            "value": "$ir"
        }]
    }, {
        "title": "Functions",
        "titleCollapse": true,
        "collapsible": true,
        "xtype": "panel",
        "width": 250,
        "border": false,
        "hideCollapseTool": true,
        "padding": "0 2 0 0",
        "titleAlign": "left",
        "layout": {
            "type": "vbox",
            "align": "stretch"
        },
        "items": [{
        	"xtype": "button",
        	"id":"insertRnd",
            "text": "Random number",
            "textAlign": "left",
            "cls": "botonSimml",
            "value": "$rnd_x_x_x"
        }, {
            "xtype": "button",
            "id":"insertRff1d",
            "text": "Read from file 1D",
            "textAlign": "left",
            "cls": "botonSimml",
            "value": "$rff1d(filename,x)"
        }, {
            "xtype": "button",
            "id":"insertRff2d",
            "text": "Read from file 2D",
            "textAlign": "left",
            "cls": "botonSimml",
            "value": "$rff2d(filename,x,y)"
        }, {
            "xtype": "button",
            "id":"insertRff3d",
            "text": "Read from file 3D",
            "textAlign": "left",
            "cls": "botonSimml",
            "value": "$rff3d(filename,x,y,z)"
        }]
    }]
}]



