\relax 
\citation{latex}
\citation{mathml}
\@writefile{toc}{\contentsline {section}{\numberline {1}Introduction}{4}{section.1}}
\newlabel{introduction}{{1}{4}{Introduction\relax }{section.1}{}}
\citation{cactusWeb}
\citation{SamraiWeb}
\citation{esg}
\citation{vcell}
\citation{cellml}
\citation{usersGuide}
\@setckpt{tex/introduction}{
\setcounter{page}{6}
\setcounter{equation}{0}
\setcounter{enumi}{0}
\setcounter{enumii}{0}
\setcounter{enumiii}{0}
\setcounter{enumiv}{0}
\setcounter{footnote}{0}
\setcounter{mpfootnote}{0}
\setcounter{part}{0}
\setcounter{section}{1}
\setcounter{subsection}{0}
\setcounter{subsubsection}{0}
\setcounter{paragraph}{0}
\setcounter{subparagraph}{0}
\setcounter{figure}{0}
\setcounter{table}{0}
\setcounter{ContinuedFloat}{0}
\setcounter{Item}{0}
\setcounter{Hfootnote}{0}
\setcounter{section@level}{0}
}
