\relax 
\citation{advection}
\citation{installGuide}
\@writefile{lof}{\contentsline {figure}{\numberline {2}{\ignorespaces List of available models \relax }}{7}{figure.caption.3}}
\newlabel{modelListFig}{{2}{7}{List of available models \label {modelListFig}\relax \relax }{figure.caption.3}{}}
\@writefile{toc}{\contentsline {section}{\numberline {3}Problem modelling and simulation}{7}{section.3}}
\newlabel{section1}{{3}{7}{Problem modelling and simulation\relax }{section.3}{}}
\@writefile{toc}{\contentsline {subsection}{\numberline {3.1}Creating a simulation problem description}{7}{subsection.3.1}}
\@writefile{lof}{\contentsline {figure}{\numberline {3}{\ignorespaces Introducing a new problem \relax }}{8}{figure.caption.4}}
\newlabel{newProblemFig}{{3}{8}{Introducing a new problem \label {newProblemFig}\relax \relax }{figure.caption.4}{}}
\@writefile{lof}{\contentsline {figure}{\numberline {4}{\ignorespaces Selecting the physical models for the problem \relax }}{9}{figure.caption.5}}
\newlabel{selectModelFig}{{4}{9}{Selecting the physical models for the problem \label {selectModelFig}\relax \relax }{figure.caption.5}{}}
\@writefile{lof}{\contentsline {figure}{\numberline {5}{\ignorespaces Inserting the field name \relax }}{9}{figure.caption.6}}
\newlabel{insertFieldNameFig}{{5}{9}{Inserting the field name \label {insertFieldNameFig}\relax \relax }{figure.caption.6}{}}
\@writefile{lof}{\contentsline {figure}{\numberline {6}{\ignorespaces Mappings between model and problem \relax }}{10}{figure.caption.7}}
\newlabel{equalitiesFig}{{6}{10}{Mappings between model and problem \label {equalitiesFig}\relax \relax }{figure.caption.7}{}}
\@writefile{lof}{\contentsline {figure}{\numberline {7}{\ignorespaces Defining the problem domain \relax }}{11}{figure.caption.8}}
\newlabel{baseSegmentFig}{{7}{11}{Defining the problem domain \label {baseSegmentFig}\relax \relax }{figure.caption.8}{}}
\@writefile{lof}{\contentsline {figure}{\numberline {8}{\ignorespaces Defining the boundaries \relax }}{11}{figure.caption.9}}
\newlabel{boundaries}{{8}{11}{Defining the boundaries \label {boundaries}\relax \relax }{figure.caption.9}{}}
\@writefile{lof}{\contentsline {figure}{\numberline {9}{\ignorespaces Periodical boundary condition for the tutorial \relax }}{12}{figure.caption.10}}
\newlabel{boundary}{{9}{12}{Periodical boundary condition for the tutorial \label {boundary}\relax \relax }{figure.caption.10}{}}
\@writefile{toc}{\contentsline {subsection}{\numberline {3.2}Choosing a discretization schema}{12}{subsection.3.2}}
\@writefile{lof}{\contentsline {figure}{\numberline {10}{\ignorespaces Defining a discrete problem \relax }}{13}{figure.caption.11}}
\newlabel{discreteProblemFig}{{10}{13}{Defining a discrete problem \label {discreteProblemFig}\relax \relax }{figure.caption.11}{}}
\citation{cactusWeb}
\citation{SamraiWeb}
\@writefile{lof}{\contentsline {figure}{\numberline {11}{\ignorespaces Selecting a discretization schema \relax }}{14}{figure.caption.12}}
\newlabel{selectDiscrSchemaFig}{{11}{14}{Selecting a discretization schema \label {selectDiscrSchemaFig}\relax \relax }{figure.caption.12}{}}
\@writefile{toc}{\contentsline {subsection}{\numberline {3.3}Generating code for the Cactus simulation platform}{14}{subsection.3.3}}
\@writefile{lof}{\contentsline {figure}{\numberline {12}{\ignorespaces The code generation tab \relax }}{15}{figure.caption.13}}
\newlabel{codeGenerationFig}{{12}{15}{The code generation tab \label {codeGenerationFig}\relax \relax }{figure.caption.13}{}}
\@writefile{toc}{\contentsline {subsection}{\numberline {3.4}Running a simulation in Cactus}{15}{subsection.3.4}}
\citation{usersGuide}
\@writefile{lof}{\contentsline {figure}{\numberline {13}{\ignorespaces The result of the run: the advected step after 25 cycles\relax }}{16}{figure.caption.14}}
\newlabel{advectionResultFig}{{13}{16}{The result of the run: the advected step after 25 cycles\label {advectionResultFig}\relax \relax }{figure.caption.14}{}}
\newlabel{LastPage}{{3.4}{16}{Running a simulation in Cactus\relax }{figure.caption.14}{}}
\@setckpt{tex/section1}{
\setcounter{page}{17}
\setcounter{equation}{0}
\setcounter{enumi}{0}
\setcounter{enumii}{0}
\setcounter{enumiii}{0}
\setcounter{enumiv}{0}
\setcounter{footnote}{3}
\setcounter{mpfootnote}{0}
\setcounter{part}{0}
\setcounter{section}{3}
\setcounter{subsection}{4}
\setcounter{subsubsection}{0}
\setcounter{paragraph}{0}
\setcounter{subparagraph}{0}
\setcounter{figure}{13}
\setcounter{table}{0}
\setcounter{ContinuedFloat}{0}
\setcounter{Item}{0}
\setcounter{Hfootnote}{3}
\setcounter{section@level}{0}
}
