\relax 
\ifx\hyper@anchor\@undefined
\global \let \oldcontentsline\contentsline
\gdef \contentsline#1#2#3#4{\oldcontentsline{#1}{#2}{#3}}
\global \let \oldnewlabel\newlabel
\gdef \newlabel#1#2{\newlabelxx{#1}#2}
\gdef \newlabelxx#1#2#3#4#5#6{\oldnewlabel{#1}{{#2}{#3}}}
\AtEndDocument{\let \contentsline\oldcontentsline
\let \newlabel\oldnewlabel}
\else
\global \let \hyper@last\relax 
\fi

\@input{tex/introduction.aux}
\@input{tex/section0.aux}
\@input{tex/section1.aux}
\bibstyle{alpha}
\bibdata{../biblio}
\bibcite{advection}{adv09}
\bibcite{cactusWeb}{cac09}
\bibcite{cellml}{cel09}
\bibcite{installGuide}{IAC11a}
\bibcite{usersGuide}{IAC11b}
\bibcite{latex}{lat09}
\bibcite{mathml}{mat09}
\bibcite{esg}{PCD{$^{+}$}03}
\bibcite{SamraiWeb}{Sam09}
\bibcite{vcell}{vce09}
\@writefile{toc}{\contentsline {section}{References}{17}{figure.caption.14}}
