\relax 
\@writefile{toc}{\contentsline {section}{\numberline {A}Input parameter files}{41}{section.A}}
\newlabel{apd:input}{{A}{41}{Input parameter files\relax }{section.A}{}}
\@writefile{toc}{\contentsline {subsection}{\numberline {A.1}Cactus}{41}{subsection.A.1}}
\@writefile{toc}{\contentsline {subsection}{\numberline {A.2}SAMRAI}{42}{subsection.A.2}}
\@writefile{toc}{\contentsline {subsubsection}{FVM}{42}{section*.27}}
\@writefile{toc}{\contentsline {subsubsection}{Particles}{45}{section*.27}}
\@writefile{toc}{\contentsline {section}{\numberline {B}Maxwell equations}{47}{section.B}}
\newlabel{MaxwellEquationsTable}{{\caption@xref {MaxwellEquationsTable}{ on input line 252}}{48}{Maxwell equations\relax }{table.caption.28}{}}
\@writefile{lot}{\contentsline {table}{\numberline {1}{\ignorespaces Table representing the Maxwell equations in the canonical format in Cartesian coordinates\relax }}{48}{table.caption.28}}
\newlabel{HeatTransferEquationTable}{{\caption@xref {HeatTransferEquationTable}{ on input line 282}}{48}{Maxwell equations\relax }{table.caption.29}{}}
\@writefile{lot}{\contentsline {table}{\numberline {2}{\ignorespaces Table representing the heat transfer equation in the canonical format in Cartesian coordinates, where $\alpha = {k \over {c_p \rho }}$\relax }}{48}{table.caption.29}}
\newlabel{HeatTranferEquationTable}{{2}{48}{Table representing the heat transfer equation in the canonical format in Cartesian coordinates, where $\alpha = {k \over {c_p \rho }}$\relax \relax }{table.caption.29}{}}
\newlabel{NavierStokesEquationsTable}{{\caption@xref {NavierStokesEquationsTable}{ on input line 300}}{49}{Maxwell equations\relax }{table.caption.30}{}}
\@writefile{lot}{\contentsline {table}{\numberline {3}{\ignorespaces Table representing the Navier-Stokes equations in the canonical format in Cartesian coordinates\relax }}{49}{table.caption.30}}
\newlabel{NavierStokesEquationsContTable}{{\caption@xref {NavierStokesEquationsContTable}{ on input line 352}}{50}{Maxwell equations\relax }{table.caption.31}{}}
\@writefile{lot}{\contentsline {table}{\numberline {4}{\ignorespaces (cont.) Table representing the Navier-Stokes equations in the canonical format in Cartesian coordinates\relax }}{50}{table.caption.31}}
\@writefile{toc}{\contentsline {section}{\numberline {C}Discretization schemas language (DSL) in detail}{51}{section.C}}
\newlabel{apd:dsl}{{C}{51}{Discretization schemas language (DSL) in detail\relax }{section.C}{}}
\@writefile{toc}{\contentsline {subsection}{\numberline {C.1}Tag description}{54}{subsection.C.1}}
\@writefile{toc}{\contentsline {subsubsection}{Control tags}{54}{section*.32}}
\@writefile{toc}{\contentsline {paragraph}{if}{55}{section*.32}}
\@writefile{toc}{\contentsline {subparagraph}{Use}{55}{section*.32}}
\@writefile{toc}{\contentsline {subparagraph}{Scope}{56}{lstnumber.-6.9}}
\@writefile{toc}{\contentsline {subparagraph}{Example}{56}{lstnumber.-6.9}}
\@writefile{toc}{\contentsline {subparagraph}{xQuery notation}{56}{lstnumber.-7.28}}
\@writefile{toc}{\contentsline {subparagraph}{xQuery example}{57}{lstnumber.-8.5}}
\@writefile{toc}{\contentsline {paragraph}{while}{57}{lstnumber.-8.5}}
\@writefile{toc}{\contentsline {subparagraph}{Use}{57}{lstnumber.-8.5}}
\@writefile{toc}{\contentsline {subparagraph}{Scope}{58}{lstnumber.-9.6}}
\@writefile{toc}{\contentsline {subparagraph}{Example}{58}{lstnumber.-9.6}}
\@writefile{toc}{\contentsline {subparagraph}{xQuery notation}{58}{lstnumber.-10.20}}
\@writefile{toc}{\contentsline {subparagraph}{xQuery example}{58}{lstnumber.-11.4}}
\@writefile{toc}{\contentsline {paragraph}{import}{59}{lstnumber.-11.4}}
\@writefile{toc}{\contentsline {subparagraph}{Use}{59}{lstnumber.-11.4}}
\@writefile{toc}{\contentsline {subparagraph}{Scope}{59}{lstnumber.-12.7}}
\@writefile{toc}{\contentsline {subparagraph}{Example}{59}{lstnumber.-12.7}}
\@writefile{toc}{\contentsline {subparagraph}{xQuery notation}{60}{lstnumber.-13.4}}
\@writefile{toc}{\contentsline {subparagraph}{xQuery example}{60}{lstnumber.-14.4}}
\@writefile{toc}{\contentsline {paragraph}{return}{60}{lstnumber.-14.4}}
\@writefile{toc}{\contentsline {subparagraph}{Use}{60}{lstnumber.-14.4}}
\@writefile{toc}{\contentsline {subparagraph}{Scope}{60}{lstnumber.-15.3}}
\@writefile{toc}{\contentsline {subparagraph}{Example}{60}{lstnumber.-15.3}}
\@writefile{toc}{\contentsline {subparagraph}{xQuery notation}{60}{lstnumber.-16.5}}
\@writefile{toc}{\contentsline {subparagraph}{xQuery example}{61}{lstnumber.-17.1}}
\@writefile{toc}{\contentsline {paragraph}{choose}{61}{lstnumber.-17.1}}
\@writefile{toc}{\contentsline {subparagraph}{Use}{61}{lstnumber.-17.1}}
\@writefile{toc}{\contentsline {subparagraph}{Scope}{61}{lstnumber.-18.12}}
\@writefile{toc}{\contentsline {subparagraph}{Example}{61}{lstnumber.-18.12}}
\@writefile{toc}{\contentsline {subparagraph}{xQuery notation}{62}{lstnumber.-19.22}}
\@writefile{toc}{\contentsline {subparagraph}{xQuery example}{62}{lstnumber.-20.4}}
\@writefile{toc}{\contentsline {subsubsection}{Macro tags}{62}{lstnumber.-20.4}}
\@writefile{toc}{\contentsline {paragraph}{auxiliaryEquations}{63}{lstnumber.-20.4}}
\@writefile{toc}{\contentsline {subparagraph}{Use}{63}{lstnumber.-20.4}}
\@writefile{toc}{\contentsline {subparagraph}{Scope}{64}{lstnumber.-21.3}}
\@writefile{toc}{\contentsline {subparagraph}{Example}{64}{lstnumber.-21.3}}
\@writefile{toc}{\contentsline {subparagraph}{xQuery notation}{64}{lstnumber.-22.13}}
\@writefile{toc}{\contentsline {subparagraph}{xQuery example}{64}{lstnumber.-23.1}}
\@writefile{toc}{\contentsline {paragraph}{constraints}{64}{lstnumber.-23.1}}
\@writefile{toc}{\contentsline {subparagraph}{Use}{64}{lstnumber.-23.1}}
\@writefile{toc}{\contentsline {subparagraph}{Scope}{65}{lstnumber.-24.3}}
\@writefile{toc}{\contentsline {subparagraph}{Example}{65}{lstnumber.-24.3}}
\@writefile{toc}{\contentsline {subparagraph}{xQuery notation}{65}{lstnumber.-25.19}}
\@writefile{toc}{\contentsline {subparagraph}{xQuery example}{65}{lstnumber.-26.1}}
\@writefile{toc}{\contentsline {paragraph}{boundary}{65}{lstnumber.-26.1}}
\@writefile{toc}{\contentsline {subparagraph}{Use}{65}{lstnumber.-26.1}}
\@writefile{toc}{\contentsline {subparagraph}{Scope}{66}{lstnumber.-27.5}}
\@writefile{toc}{\contentsline {subparagraph}{Example}{66}{lstnumber.-27.5}}
\@writefile{toc}{\contentsline {subparagraph}{xQuery notation}{67}{lstnumber.-28.37}}
\@writefile{toc}{\contentsline {subparagraph}{xQuery example}{67}{lstnumber.-29.3}}
\@writefile{toc}{\contentsline {paragraph}{timeStep}{67}{lstnumber.-29.3}}
\@writefile{toc}{\contentsline {subparagraph}{Use}{67}{lstnumber.-29.3}}
\@writefile{toc}{\contentsline {subparagraph}{Scope}{67}{lstnumber.-30.3}}
\@writefile{toc}{\contentsline {subparagraph}{Example}{68}{lstnumber.-30.3}}
\@writefile{toc}{\contentsline {subparagraph}{xQuery notation}{68}{lstnumber.-31.19}}
\@writefile{toc}{\contentsline {subparagraph}{xQuery example}{68}{lstnumber.-32.3}}
\@writefile{toc}{\contentsline {paragraph}{moveParticles}{68}{lstnumber.-32.3}}
\@writefile{toc}{\contentsline {subparagraph}{Use}{68}{lstnumber.-32.3}}
\@writefile{toc}{\contentsline {subparagraph}{Scope}{69}{lstnumber.-33.4}}
\@writefile{toc}{\contentsline {subparagraph}{Example}{69}{lstnumber.-33.4}}
\@writefile{toc}{\contentsline {subparagraph}{xQuery notation}{70}{lstnumber.-34.30}}
\@writefile{toc}{\contentsline {subparagraph}{xQuery example}{70}{lstnumber.-35.2}}
\@writefile{toc}{\contentsline {paragraph}{checkFinalization}{70}{lstnumber.-35.2}}
\@writefile{toc}{\contentsline {subparagraph}{Use}{70}{lstnumber.-35.2}}
\@writefile{toc}{\contentsline {subparagraph}{Scope}{70}{lstnumber.-36.1}}
\@writefile{toc}{\contentsline {subparagraph}{Example}{70}{lstnumber.-36.1}}
\@writefile{toc}{\contentsline {subparagraph}{xQuery notation}{70}{lstnumber.-37.1}}
\@writefile{toc}{\contentsline {subparagraph}{xQuery example}{71}{lstnumber.-38.1}}
\@writefile{toc}{\contentsline {paragraph}{sources}{71}{lstnumber.-38.1}}
\@writefile{toc}{\contentsline {subparagraph}{Use}{71}{lstnumber.-38.1}}
\@writefile{toc}{\contentsline {subparagraph}{Scope}{71}{lstnumber.-39.3}}
\@writefile{toc}{\contentsline {subparagraph}{Example}{71}{lstnumber.-39.3}}
\@writefile{toc}{\contentsline {subparagraph}{xQuery notation}{72}{lstnumber.-40.31}}
\@writefile{toc}{\contentsline {subparagraph}{xQuery example}{72}{lstnumber.-41.1}}
\@writefile{toc}{\contentsline {paragraph}{normalVectorInitialization}{72}{lstnumber.-41.1}}
\@writefile{toc}{\contentsline {subparagraph}{Use}{72}{Item.4}}
\@writefile{toc}{\contentsline {subparagraph}{Scope}{72}{lstnumber.-42.1}}
\@writefile{toc}{\contentsline {subparagraph}{Example}{73}{lstnumber.-42.1}}
\@writefile{toc}{\contentsline {subparagraph}{xQuery notation}{73}{lstnumber.-43.1}}
\@writefile{toc}{\contentsline {subparagraph}{xQuery example}{73}{lstnumber.-44.1}}
\@writefile{toc}{\contentsline {paragraph}{normalVectorCalculation}{73}{lstnumber.-44.1}}
\@writefile{toc}{\contentsline {subparagraph}{Use}{73}{Item.8}}
\@writefile{toc}{\contentsline {subparagraph}{Scope}{73}{lstnumber.-46.3}}
\@writefile{toc}{\contentsline {subparagraph}{Example}{74}{lstnumber.-46.3}}
\@writefile{toc}{\contentsline {subparagraph}{xQuery notation}{74}{lstnumber.-47.1}}
\@writefile{toc}{\contentsline {subparagraph}{xQuery example}{74}{lstnumber.-49.1}}
\@writefile{toc}{\contentsline {paragraph}{normalVectorNormalization}{74}{lstnumber.-49.1}}
\@writefile{toc}{\contentsline {subparagraph}{Use}{74}{Item.12}}
\@writefile{toc}{\contentsline {subparagraph}{Scope}{74}{lstnumber.-50.1}}
\@writefile{toc}{\contentsline {subparagraph}{Example}{74}{lstnumber.-50.1}}
\@writefile{toc}{\contentsline {subparagraph}{xQuery notation}{75}{lstnumber.-51.1}}
\@writefile{toc}{\contentsline {subparagraph}{xQuery example}{75}{lstnumber.-52.1}}
\@writefile{toc}{\contentsline {paragraph}{segmentInteraction}{75}{lstnumber.-52.1}}
\@writefile{toc}{\contentsline {subparagraph}{Use}{75}{lstnumber.-52.1}}
\@writefile{toc}{\contentsline {subparagraph}{Scope}{76}{lstnumber.-54.22}}
\@writefile{toc}{\contentsline {subparagraph}{Example}{76}{lstnumber.-54.22}}
\@writefile{toc}{\contentsline {subparagraph}{xQuery notation}{77}{lstnumber.-55.15}}
\@writefile{toc}{\contentsline {subparagraph}{xQuery example}{77}{lstnumber.-57.1}}
\@writefile{toc}{\contentsline {paragraph}{parabolicTermsQ \& parabolicTermsP}{77}{lstnumber.-57.1}}
\@writefile{toc}{\contentsline {subparagraph}{Use}{77}{lstnumber.-57.1}}
\@writefile{toc}{\contentsline {subparagraph}{Scope}{77}{lstnumber.-58.7}}
\@writefile{toc}{\contentsline {subparagraph}{Example}{78}{lstnumber.-58.7}}
\@writefile{toc}{\contentsline {subparagraph}{xQuery notation}{78}{lstnumber.-59.32}}
\@writefile{toc}{\contentsline {subparagraph}{xQuery example}{78}{lstnumber.-60.2}}
\@writefile{toc}{\contentsline {paragraph}{parabolicTermsSumVariables}{79}{lstnumber.-60.2}}
\@writefile{toc}{\contentsline {subparagraph}{Use}{79}{lstnumber.-60.2}}
\@writefile{toc}{\contentsline {subparagraph}{Scope}{79}{lstnumber.-61.3}}
\@writefile{toc}{\contentsline {subparagraph}{Example}{79}{lstnumber.-61.3}}
\@writefile{toc}{\contentsline {subparagraph}{xQuery notation}{80}{lstnumber.-62.23}}
\@writefile{toc}{\contentsline {subparagraph}{xQuery example}{80}{lstnumber.-63.1}}
\@writefile{toc}{\contentsline {paragraph}{doubleDerivative}{80}{lstnumber.-63.1}}
\@writefile{toc}{\contentsline {subparagraph}{Use}{80}{lstnumber.-63.1}}
\@writefile{toc}{\contentsline {subparagraph}{Scope}{80}{lstnumber.-64.8}}
\@writefile{toc}{\contentsline {subparagraph}{Example}{80}{lstnumber.-64.8}}
\@writefile{toc}{\contentsline {subparagraph}{xQuery notation}{81}{lstnumber.-65.40}}
\@writefile{toc}{\contentsline {subparagraph}{xQuery example}{81}{lstnumber.-66.2}}
\@writefile{toc}{\contentsline {paragraph}{diagonalize}{81}{lstnumber.-66.2}}
\@writefile{toc}{\contentsline {subparagraph}{Use}{82}{lstnumber.-66.2}}
\@writefile{toc}{\contentsline {subparagraph}{Scope}{82}{lstnumber.-67.8}}
\@writefile{toc}{\contentsline {subparagraph}{Example}{82}{lstnumber.-67.8}}
\@writefile{toc}{\contentsline {subparagraph}{xQuery notation}{83}{lstnumber.-68.24}}
\@writefile{toc}{\contentsline {subparagraph}{xQuery example}{83}{lstnumber.-69.1}}
\@writefile{toc}{\contentsline {paragraph}{undiagonalize}{83}{lstnumber.-69.1}}
\@writefile{toc}{\contentsline {subparagraph}{Use}{83}{lstnumber.-69.1}}
\@writefile{toc}{\contentsline {subparagraph}{Scope}{83}{lstnumber.-70.8}}
\@writefile{toc}{\contentsline {subparagraph}{Example}{83}{lstnumber.-70.8}}
\@writefile{toc}{\contentsline {subparagraph}{xQuery notation}{84}{lstnumber.-71.24}}
\@writefile{toc}{\contentsline {subparagraph}{xQuery example}{84}{lstnumber.-72.1}}
\@writefile{toc}{\contentsline {paragraph}{maxCharSpeed}{84}{lstnumber.-72.1}}
\@writefile{toc}{\contentsline {subparagraph}{Use}{84}{lstnumber.-72.1}}
\@writefile{toc}{\contentsline {subparagraph}{Scope}{85}{lstnumber.-73.3}}
\@writefile{toc}{\contentsline {subparagraph}{Example}{85}{lstnumber.-73.3}}
\@writefile{toc}{\contentsline {subparagraph}{xQuery notation}{85}{lstnumber.-74.14}}
\@writefile{toc}{\contentsline {subparagraph}{xQuery example}{85}{lstnumber.-75.1}}
\@writefile{toc}{\contentsline {paragraph}{maxCharSpeedCoordinate}{85}{lstnumber.-75.1}}
\@writefile{toc}{\contentsline {subparagraph}{Use}{85}{lstnumber.-75.1}}
\@writefile{toc}{\contentsline {subparagraph}{Scope}{86}{lstnumber.-76.3}}
\@writefile{toc}{\contentsline {subparagraph}{Example}{86}{lstnumber.-76.3}}
\@writefile{toc}{\contentsline {subparagraph}{xQuery notation}{86}{lstnumber.-77.19}}
\@writefile{toc}{\contentsline {subparagraph}{xQuery example}{86}{lstnumber.-78.1}}
\@writefile{toc}{\contentsline {paragraph}{sumOverInfluenceRadius}{86}{lstnumber.-78.1}}
\@writefile{toc}{\contentsline {subparagraph}{Use}{87}{lstnumber.-78.1}}
\@writefile{toc}{\contentsline {subparagraph}{Scope}{87}{lstnumber.-79.6}}
\@writefile{toc}{\contentsline {subparagraph}{Example}{87}{lstnumber.-79.6}}
\@writefile{toc}{\contentsline {subparagraph}{xQuery notation}{88}{lstnumber.-80.60}}
\@writefile{toc}{\contentsline {subparagraph}{xQuery example}{88}{lstnumber.-81.2}}
\@writefile{toc}{\contentsline {paragraph}{deployCoordinates}{88}{lstnumber.-81.2}}
\@writefile{toc}{\contentsline {subparagraph}{Use}{88}{lstnumber.-81.2}}
\@writefile{toc}{\contentsline {subparagraph}{Scope}{89}{lstnumber.-82.1}}
\@writefile{toc}{\contentsline {subparagraph}{Example}{89}{lstnumber.-82.1}}
\@writefile{toc}{\contentsline {subparagraph}{xQuery notation}{89}{lstnumber.-83.19}}
\@writefile{toc}{\contentsline {subparagraph}{xQuery example}{89}{lstnumber.-84.1}}
\@writefile{toc}{\contentsline {paragraph}{incrementCoordinate \& decrementCoordinate}{89}{lstnumber.-84.1}}
\@writefile{toc}{\contentsline {subparagraph}{Use}{89}{lstnumber.-84.1}}
\@writefile{toc}{\contentsline {subparagraph}{Scope}{90}{lstnumber.-85.3}}
\@writefile{toc}{\contentsline {subparagraph}{Example}{90}{lstnumber.-85.3}}
\@writefile{toc}{\contentsline {subparagraph}{xQuery notation}{90}{lstnumber.-86.19}}
\@writefile{toc}{\contentsline {subparagraph}{xQuery example}{90}{lstnumber.-87.2}}
\@writefile{toc}{\contentsline {paragraph}{incrementCoordinate2 \& decrementCoordinate2}{91}{lstnumber.-87.2}}
\@writefile{toc}{\contentsline {subparagraph}{Use}{91}{lstnumber.-87.2}}
\@writefile{toc}{\contentsline {subparagraph}{Scope}{91}{lstnumber.-88.3}}
\@writefile{toc}{\contentsline {subparagraph}{Example}{91}{lstnumber.-88.3}}
\@writefile{toc}{\contentsline {subparagraph}{xQuery notation}{91}{lstnumber.-89.19}}
\@writefile{toc}{\contentsline {subparagraph}{xQuery example}{92}{lstnumber.-90.2}}
\@writefile{toc}{\contentsline {paragraph}{incrementCoordinate1incrementCoordinate2 \& incrementCoordinate1decrementCoordinate2 \\\& decrementCoordinate1incrementCoordinate2 \\\& decrementCoordinate1decrementCoordinate2}{92}{lstnumber.-90.2}}
\@writefile{toc}{\contentsline {subparagraph}{Use}{92}{lstnumber.-90.2}}
\@writefile{toc}{\contentsline {subparagraph}{Scope}{92}{lstnumber.-91.7}}
\@writefile{toc}{\contentsline {subparagraph}{Example}{92}{lstnumber.-91.7}}
\@writefile{toc}{\contentsline {subparagraph}{xQuery notation}{93}{lstnumber.-92.19}}
\@writefile{toc}{\contentsline {subparagraph}{xQuery example}{93}{lstnumber.-93.4}}
\@writefile{toc}{\contentsline {subsubsection}{Context tags}{93}{lstnumber.-93.4}}
\@writefile{toc}{\contentsline {paragraph}{omnidirectionalContext}{93}{lstnumber.-93.4}}
\@writefile{toc}{\contentsline {subparagraph}{Use}{94}{lstnumber.-93.4}}
\@writefile{toc}{\contentsline {subparagraph}{Scope}{94}{lstnumber.-94.3}}
\@writefile{toc}{\contentsline {subparagraph}{Example}{94}{lstnumber.-94.3}}
\@writefile{toc}{\contentsline {subparagraph}{xQuery notation}{94}{lstnumber.-95.21}}
\@writefile{toc}{\contentsline {subparagraph}{xQuery example}{94}{lstnumber.-96.1}}
\@writefile{toc}{\contentsline {paragraph}{genericFieldContext}{95}{lstnumber.-96.1}}
\@writefile{toc}{\contentsline {subparagraph}{Use}{95}{lstnumber.-96.1}}
\@writefile{toc}{\contentsline {subparagraph}{Scope}{95}{lstnumber.-97.3}}
\@writefile{toc}{\contentsline {subparagraph}{Example}{95}{lstnumber.-97.3}}
\@writefile{toc}{\contentsline {subparagraph}{xQuery notation}{95}{lstnumber.-98.19}}
\@writefile{toc}{\contentsline {subparagraph}{xQuery example}{96}{lstnumber.-99.1}}
\@writefile{toc}{\contentsline {paragraph}{specialFieldContext}{96}{lstnumber.-99.1}}
\@writefile{toc}{\contentsline {subparagraph}{Use}{96}{lstnumber.-99.1}}
\@writefile{toc}{\contentsline {subparagraph}{Scope}{96}{lstnumber.-100.3}}
\@writefile{toc}{\contentsline {subparagraph}{Example}{96}{lstnumber.-100.3}}
\@writefile{toc}{\contentsline {subparagraph}{xQuery notation}{97}{lstnumber.-101.19}}
\@writefile{toc}{\contentsline {subparagraph}{xQuery example}{97}{lstnumber.-102.1}}
\@writefile{toc}{\contentsline {paragraph}{neighbourParticle}{97}{lstnumber.-102.1}}
\@writefile{toc}{\contentsline {subparagraph}{Use}{97}{lstnumber.-102.1}}
\@writefile{toc}{\contentsline {subparagraph}{Scope}{97}{lstnumber.-103.3}}
\@writefile{toc}{\contentsline {subparagraph}{Example}{97}{lstnumber.-103.3}}
\@writefile{toc}{\contentsline {subparagraph}{xQuery notation}{98}{lstnumber.-104.60}}
\@writefile{toc}{\contentsline {subparagraph}{xQuery example}{99}{lstnumber.-105.1}}
\@writefile{toc}{\contentsline {paragraph}{parabolicTermsContext}{99}{lstnumber.-105.1}}
\@writefile{toc}{\contentsline {subparagraph}{Use}{99}{lstnumber.-105.1}}
\@writefile{toc}{\contentsline {subparagraph}{Scope}{99}{lstnumber.-106.3}}
\@writefile{toc}{\contentsline {subparagraph}{Example}{99}{lstnumber.-106.3}}
\@writefile{toc}{\contentsline {subparagraph}{xQuery notation}{100}{lstnumber.-107.22}}
\@writefile{toc}{\contentsline {subparagraph}{xQuery example}{100}{lstnumber.-108.1}}
\@writefile{toc}{\contentsline {paragraph}{fieldGroup}{100}{lstnumber.-108.1}}
\@writefile{toc}{\contentsline {subparagraph}{Use}{100}{lstnumber.-108.1}}
\@writefile{toc}{\contentsline {subparagraph}{Scope}{100}{lstnumber.-109.3}}
\@writefile{toc}{\contentsline {subparagraph}{Example}{100}{lstnumber.-109.3}}
\@writefile{toc}{\contentsline {subparagraph}{xQuery notation}{101}{lstnumber.-110.19}}
\@writefile{toc}{\contentsline {subparagraph}{xQuery example}{101}{lstnumber.-111.2}}
\@writefile{toc}{\contentsline {paragraph}{interiorDomainContext}{101}{lstnumber.-111.2}}
\@writefile{toc}{\contentsline {subparagraph}{Use}{101}{lstnumber.-111.2}}
\@writefile{toc}{\contentsline {subparagraph}{Scope}{102}{lstnumber.-112.3}}
\@writefile{toc}{\contentsline {subparagraph}{Example}{102}{lstnumber.-112.3}}
\@writefile{toc}{\contentsline {subparagraph}{xQuery notation}{102}{lstnumber.-113.19}}
\@writefile{toc}{\contentsline {subparagraph}{xQuery example}{102}{lstnumber.-114.1}}
\@writefile{toc}{\contentsline {subsubsection}{Data type tags}{102}{lstnumber.-114.1}}
\@writefile{toc}{\contentsline {paragraph}{field}{103}{lstnumber.-114.1}}
\@writefile{toc}{\contentsline {subparagraph}{Use}{103}{lstnumber.-114.1}}
\@writefile{toc}{\contentsline {subparagraph}{Scope}{103}{lstnumber.-115.1}}
\@writefile{toc}{\contentsline {subparagraph}{Example}{104}{lstnumber.-115.1}}
\@writefile{toc}{\contentsline {subparagraph}{xQuery notation}{104}{lstnumber.-116.14}}
\@writefile{toc}{\contentsline {subparagraph}{xQuery example}{104}{lstnumber.-117.1}}
\@writefile{toc}{\contentsline {paragraph}{specialField}{104}{lstnumber.-117.1}}
\@writefile{toc}{\contentsline {subparagraph}{Use}{104}{lstnumber.-117.1}}
\@writefile{toc}{\contentsline {subparagraph}{Scope}{104}{lstnumber.-118.1}}
\@writefile{toc}{\contentsline {subparagraph}{Example}{105}{lstnumber.-118.1}}
\@writefile{toc}{\contentsline {subparagraph}{xQuery notation}{105}{lstnumber.-119.14}}
\@writefile{toc}{\contentsline {subparagraph}{xQuery example}{105}{lstnumber.-120.1}}
\@writefile{toc}{\contentsline {paragraph}{eigenVector}{105}{lstnumber.-120.1}}
\@writefile{toc}{\contentsline {subparagraph}{Use}{105}{lstnumber.-120.1}}
\@writefile{toc}{\contentsline {subparagraph}{Scope}{105}{lstnumber.-121.1}}
\@writefile{toc}{\contentsline {subparagraph}{Example}{106}{lstnumber.-121.1}}
\@writefile{toc}{\contentsline {subparagraph}{xQuery notation}{106}{lstnumber.-122.14}}
\@writefile{toc}{\contentsline {subparagraph}{xQuery example}{106}{lstnumber.-123.1}}
\@writefile{toc}{\contentsline {paragraph}{param}{106}{lstnumber.-123.1}}
\@writefile{toc}{\contentsline {subparagraph}{Use}{106}{lstnumber.-123.1}}
\@writefile{toc}{\contentsline {subparagraph}{Scope}{106}{lstnumber.-124.1}}
\@writefile{toc}{\contentsline {subparagraph}{Example}{107}{lstnumber.-124.1}}
\@writefile{toc}{\contentsline {subparagraph}{xQuery notation}{107}{lstnumber.-125.13}}
\@writefile{toc}{\contentsline {subparagraph}{xQuery example}{107}{lstnumber.-126.1}}
\@writefile{toc}{\contentsline {paragraph}{spatialCoordinate}{107}{lstnumber.-126.1}}
\@writefile{toc}{\contentsline {subparagraph}{Use}{107}{lstnumber.-126.1}}
\@writefile{toc}{\contentsline {subparagraph}{Scope}{107}{lstnumber.-127.1}}
\@writefile{toc}{\contentsline {subparagraph}{Example}{107}{lstnumber.-127.1}}
\@writefile{toc}{\contentsline {subparagraph}{xQuery notation}{108}{lstnumber.-128.19}}
\@writefile{toc}{\contentsline {subparagraph}{xQuery example}{108}{lstnumber.-129.1}}
\@writefile{toc}{\contentsline {paragraph}{timeCoordinate}{108}{lstnumber.-129.1}}
\@writefile{toc}{\contentsline {subparagraph}{Use}{108}{lstnumber.-129.1}}
\@writefile{toc}{\contentsline {subparagraph}{Scope}{108}{lstnumber.-130.1}}
\@writefile{toc}{\contentsline {subparagraph}{Example}{109}{lstnumber.-130.1}}
\@writefile{toc}{\contentsline {subparagraph}{xQuery notation}{109}{lstnumber.-131.19}}
\@writefile{toc}{\contentsline {subparagraph}{xQuery example}{109}{lstnumber.-132.1}}
\@writefile{toc}{\contentsline {paragraph}{secondSpatialCoordinate}{109}{lstnumber.-132.1}}
\@writefile{toc}{\contentsline {subparagraph}{Use}{109}{lstnumber.-132.1}}
\@writefile{toc}{\contentsline {subparagraph}{Scope}{109}{lstnumber.-133.1}}
\@writefile{toc}{\contentsline {subparagraph}{Example}{110}{lstnumber.-133.1}}
\@writefile{toc}{\contentsline {subparagraph}{xQuery notation}{110}{lstnumber.-134.18}}
\@writefile{toc}{\contentsline {subparagraph}{xQuery example}{110}{lstnumber.-135.1}}
\@writefile{toc}{\contentsline {paragraph}{contSpatialCoordinate}{110}{lstnumber.-135.1}}
\@writefile{toc}{\contentsline {subparagraph}{Use}{110}{lstnumber.-135.1}}
\@writefile{toc}{\contentsline {subparagraph}{Scope}{110}{lstnumber.-136.1}}
\@writefile{toc}{\contentsline {subparagraph}{Example}{111}{lstnumber.-136.1}}
\@writefile{toc}{\contentsline {subparagraph}{xQuery notation}{111}{lstnumber.-137.19}}
\@writefile{toc}{\contentsline {subparagraph}{xQuery example}{111}{lstnumber.-138.1}}
\@writefile{toc}{\contentsline {paragraph}{contTimeCoordinate}{111}{lstnumber.-138.1}}
\@writefile{toc}{\contentsline {subparagraph}{Use}{111}{lstnumber.-138.1}}
\@writefile{toc}{\contentsline {subparagraph}{Scope}{111}{lstnumber.-139.1}}
\@writefile{toc}{\contentsline {subparagraph}{Example}{112}{lstnumber.-139.1}}
\@writefile{toc}{\contentsline {subparagraph}{xQuery notation}{112}{lstnumber.-140.19}}
\@writefile{toc}{\contentsline {subparagraph}{xQuery example}{112}{lstnumber.-141.1}}
\@writefile{toc}{\contentsline {paragraph}{secondContSpatialCoordinate}{112}{lstnumber.-141.1}}
\@writefile{toc}{\contentsline {subparagraph}{Use}{112}{lstnumber.-141.1}}
\@writefile{toc}{\contentsline {subparagraph}{Scope}{113}{lstnumber.-142.1}}
\@writefile{toc}{\contentsline {subparagraph}{Example}{113}{lstnumber.-142.1}}
\@writefile{toc}{\contentsline {subparagraph}{xQuery notation}{113}{lstnumber.-143.19}}
\@writefile{toc}{\contentsline {subparagraph}{xQuery example}{113}{lstnumber.-144.1}}
\@writefile{toc}{\contentsline {paragraph}{coordinate}{113}{lstnumber.-144.1}}
\@writefile{toc}{\contentsline {subparagraph}{Use}{113}{lstnumber.-144.1}}
\@writefile{toc}{\contentsline {subparagraph}{Scope}{114}{lstnumber.-145.1}}
\@writefile{toc}{\contentsline {subparagraph}{Example}{114}{lstnumber.-145.1}}
\@writefile{toc}{\contentsline {subparagraph}{xQuery notation}{114}{lstnumber.-146.9}}
\@writefile{toc}{\contentsline {subparagraph}{xQuery example}{114}{lstnumber.-147.1}}
\@writefile{toc}{\contentsline {paragraph}{contCoordinate}{114}{lstnumber.-147.1}}
\@writefile{toc}{\contentsline {subparagraph}{Use}{114}{lstnumber.-147.1}}
\@writefile{toc}{\contentsline {subparagraph}{Scope}{114}{lstnumber.-148.1}}
\@writefile{toc}{\contentsline {subparagraph}{Example}{115}{lstnumber.-148.1}}
\@writefile{toc}{\contentsline {subparagraph}{xQuery notation}{115}{lstnumber.-149.9}}
\@writefile{toc}{\contentsline {subparagraph}{xQuery example}{115}{lstnumber.-150.1}}
\@writefile{toc}{\contentsline {paragraph}{iterationNumber}{115}{lstnumber.-150.1}}
\@writefile{toc}{\contentsline {subparagraph}{Use}{115}{lstnumber.-150.1}}
\@writefile{toc}{\contentsline {subparagraph}{Scope}{115}{lstnumber.-151.1}}
\@writefile{toc}{\contentsline {subparagraph}{Example}{115}{lstnumber.-151.1}}
\@writefile{toc}{\contentsline {subparagraph}{xQuery notation}{116}{lstnumber.-152.9}}
\@writefile{toc}{\contentsline {subparagraph}{xQuery example}{116}{lstnumber.-153.1}}
\@writefile{toc}{\contentsline {paragraph}{currentTime}{116}{lstnumber.-153.1}}
\@writefile{toc}{\contentsline {subparagraph}{Use}{116}{lstnumber.-153.1}}
\@writefile{toc}{\contentsline {subparagraph}{Scope}{116}{lstnumber.-154.1}}
\@writefile{toc}{\contentsline {subparagraph}{Example}{116}{lstnumber.-154.1}}
\@writefile{toc}{\contentsline {subparagraph}{xQuery notation}{117}{lstnumber.-155.5}}
\@writefile{toc}{\contentsline {subparagraph}{xQuery example}{117}{lstnumber.-156.1}}
\@writefile{toc}{\contentsline {paragraph}{parabolicTermsVariable}{117}{lstnumber.-156.1}}
\@writefile{toc}{\contentsline {subparagraph}{Use}{117}{lstnumber.-156.1}}
\@writefile{toc}{\contentsline {subparagraph}{Scope}{117}{lstnumber.-157.1}}
\@writefile{toc}{\contentsline {subparagraph}{Example}{117}{lstnumber.-157.1}}
\@writefile{toc}{\contentsline {subparagraph}{xQuery notation}{117}{lstnumber.-158.11}}
\@writefile{toc}{\contentsline {subparagraph}{xQuery example}{118}{lstnumber.-159.1}}
\@writefile{toc}{\contentsline {paragraph}{particleDistance}{118}{lstnumber.-159.1}}
\@writefile{toc}{\contentsline {subparagraph}{Use}{118}{lstnumber.-159.1}}
\@writefile{toc}{\contentsline {subparagraph}{Scope}{118}{lstnumber.-160.1}}
\@writefile{toc}{\contentsline {subparagraph}{Example}{118}{lstnumber.-160.1}}
\@writefile{toc}{\contentsline {subparagraph}{xQuery notation}{118}{lstnumber.-161.14}}
\@writefile{toc}{\contentsline {subparagraph}{xQuery example}{119}{lstnumber.-162.1}}
\@writefile{toc}{\contentsline {paragraph}{smoothingLength}{119}{lstnumber.-162.1}}
\@writefile{toc}{\contentsline {subparagraph}{Use}{119}{lstnumber.-162.1}}
\@writefile{toc}{\contentsline {subparagraph}{Scope}{119}{lstnumber.-163.1}}
\@writefile{toc}{\contentsline {subparagraph}{Example}{119}{lstnumber.-163.1}}
\@writefile{toc}{\contentsline {subparagraph}{xQuery notation}{119}{lstnumber.-164.9}}
\@writefile{toc}{\contentsline {subparagraph}{xQuery example}{119}{lstnumber.-165.1}}
\@writefile{toc}{\contentsline {paragraph}{particleVolume}{120}{lstnumber.-165.1}}
\@writefile{toc}{\contentsline {subparagraph}{Use}{120}{lstnumber.-165.1}}
\@writefile{toc}{\contentsline {subparagraph}{Scope}{120}{lstnumber.-166.1}}
\@writefile{toc}{\contentsline {subparagraph}{Example}{120}{lstnumber.-166.1}}
\@writefile{toc}{\contentsline {subparagraph}{xQuery notation}{120}{lstnumber.-167.21}}
\@writefile{toc}{\contentsline {subparagraph}{xQuery example}{120}{lstnumber.-168.1}}
\@writefile{lof}{\contentsline {figure}{\numberline {25}{\ignorespaces Field at actual time \relax }}{121}{figure.caption.34}}
\newlabel{unp1}{{25}{121}{Field at actual time \label {unp1}\relax \relax }{figure.caption.34}{}}
\@writefile{toc}{\contentsline {subsection}{\numberline {C.2}Common structures}{121}{subsection.C.2}}
\@writefile{toc}{\contentsline {subsubsection}{Field at any time}{121}{section*.33}}
\@writefile{lof}{\contentsline {figure}{\numberline {26}{\ignorespaces Field at previous time \relax }}{122}{figure.caption.35}}
\newlabel{un}{{26}{122}{Field at previous time \label {un}\relax \relax }{figure.caption.35}{}}
\@writefile{lof}{\contentsline {figure}{\numberline {27}{\ignorespaces Field at two step previous time \relax }}{122}{figure.caption.36}}
\newlabel{unm1}{{27}{122}{Field at two step previous time \label {unm1}\relax \relax }{figure.caption.36}{}}
\@writefile{toc}{\contentsline {subsubsection}{Variable based on field}{122}{figure.caption.36}}
\@writefile{lof}{\contentsline {figure}{\numberline {28}{\ignorespaces Variable based on field, example 1 \relax }}{123}{figure.caption.37}}
\newlabel{vbof1}{{28}{123}{Variable based on field, example 1 \label {vbof1}\relax \relax }{figure.caption.37}{}}
\@writefile{lof}{\contentsline {figure}{\numberline {29}{\ignorespaces Variable based on field, example 2 \relax }}{123}{figure.caption.38}}
\newlabel{vbof2}{{29}{123}{Variable based on field, example 2 \label {vbof2}\relax \relax }{figure.caption.38}{}}
\@writefile{toc}{\contentsline {subsubsection}{Shared variable}{123}{figure.caption.38}}
\@writefile{lof}{\contentsline {figure}{\numberline {30}{\ignorespaces Position variable \relax }}{124}{figure.caption.39}}
\newlabel{position}{{30}{124}{Position variable \label {position}\relax \relax }{figure.caption.39}{}}
\@writefile{toc}{\contentsline {subsubsection}{Position (Only for particles)}{124}{lstnumber.-174.16}}
\@writefile{lof}{\contentsline {figure}{\numberline {31}{\ignorespaces Flux utilization \relax }}{125}{figure.caption.40}}
\newlabel{flux}{{31}{125}{Flux utilization \label {flux}\relax \relax }{figure.caption.40}{}}
\@writefile{toc}{\contentsline {subsubsection}{Flux utilization}{125}{figure.caption.39}}
\@writefile{toc}{\contentsline {subsubsection}{Function calling}{125}{figure.caption.40}}
\@writefile{lof}{\contentsline {figure}{\numberline {32}{\ignorespaces Function calling \relax }}{126}{figure.caption.41}}
\newlabel{function}{{32}{126}{Function calling \label {function}\relax \relax }{figure.caption.41}{}}
\@writefile{toc}{\contentsline {subsection}{\numberline {C.3}xQuery to DSL mapping}{126}{subsection.C.3}}
\@writefile{toc}{\contentsline {section}{\numberline {D}Simulation code description}{127}{section.D}}
\newlabel{apd:simCode}{{D}{127}{Simulation code description\relax }{section.D}{}}
\@writefile{toc}{\contentsline {subsection}{\numberline {D.1}Cactus}{128}{subsection.D.1}}
\@writefile{toc}{\contentsline {subsubsection}{Startup.F}{128}{section*.42}}
\@writefile{toc}{\contentsline {subsubsection}{MappingSegments.m4}{128}{section*.42}}
\@writefile{toc}{\contentsline {subsubsection}{InitialConditions.F}{129}{section*.42}}
\@writefile{toc}{\contentsline {subsubsection}{ExecutionFlow.m4}{129}{section*.42}}
\@writefile{toc}{\contentsline {subsubsection}{Functions.F}{129}{section*.42}}
\@writefile{toc}{\contentsline {subsubsection}{make.code.defn}{129}{section*.42}}
\@writefile{toc}{\contentsline {subsection}{\numberline {D.2}SAMRAI}{129}{subsection.D.2}}
\@writefile{toc}{\contentsline {subsubsection}{SAMRAIConnector.cpp}{130}{section*.43}}
\@writefile{toc}{\contentsline {subsubsection}{Problem.cpp}{131}{section*.43}}
\@writefile{toc}{\contentsline {subsubsection}{Problem.h}{132}{section*.43}}
\@writefile{toc}{\contentsline {subsubsection}{Functions.cpp}{132}{section*.43}}
\@writefile{toc}{\contentsline {subsubsection}{Functions.h}{132}{section*.43}}
\@writefile{toc}{\contentsline {subsubsection}{MainRestartData.cpp}{132}{section*.43}}
\@writefile{toc}{\contentsline {subsubsection}{MainRestartData.h}{132}{section*.43}}
\@writefile{toc}{\contentsline {subsubsection}{Particle.C}{132}{section*.43}}
\@writefile{toc}{\contentsline {subsubsection}{Particle.h}{133}{section*.43}}
\@writefile{toc}{\contentsline {subsubsection}{Particles.C}{133}{section*.43}}
\@writefile{toc}{\contentsline {subsubsection}{Particles.h}{133}{section*.43}}
\@writefile{toc}{\contentsline {subsubsection}{NonSync.C}{133}{section*.43}}
\@writefile{toc}{\contentsline {subsubsection}{NonSync.h}{133}{section*.43}}
\@writefile{toc}{\contentsline {subsubsection}{NonSyncs.C}{133}{section*.43}}
\@writefile{toc}{\contentsline {subsubsection}{NonSyncs.h}{133}{section*.43}}
\@writefile{toc}{\contentsline {subsubsection}{ParticleDataWriter.C}{133}{section*.43}}
\@writefile{toc}{\contentsline {subsubsection}{ParticleDataWriter.h}{133}{section*.43}}
\@setckpt{tex/appendix}{
\setcounter{page}{134}
\setcounter{equation}{2}
\setcounter{enumi}{4}
\setcounter{enumii}{0}
\setcounter{enumiii}{0}
\setcounter{enumiv}{0}
\setcounter{footnote}{7}
\setcounter{mpfootnote}{0}
\setcounter{part}{0}
\setcounter{section}{4}
\setcounter{subsection}{2}
\setcounter{subsubsection}{0}
\setcounter{paragraph}{0}
\setcounter{subparagraph}{0}
\setcounter{figure}{32}
\setcounter{table}{4}
\setcounter{parentequation}{0}
\setcounter{lstnumber}{15}
\setcounter{ContinuedFloat}{0}
\setcounter{Item}{12}
\setcounter{Hfootnote}{7}
\setcounter{lstlisting}{0}
\setcounter{section@level}{0}
}
