\relax 
\citation{installGuide}
\citation{tutorial}
\@writefile{toc}{\contentsline {section}{\numberline {1}Introduction}{7}{section.1}}
\newlabel{introduction}{{1}{7}{Introduction\relax }{section.1}{}}
\@setckpt{tex/introduction}{
\setcounter{page}{8}
\setcounter{equation}{0}
\setcounter{enumi}{0}
\setcounter{enumii}{0}
\setcounter{enumiii}{0}
\setcounter{enumiv}{0}
\setcounter{footnote}{0}
\setcounter{mpfootnote}{0}
\setcounter{part}{0}
\setcounter{section}{1}
\setcounter{subsection}{0}
\setcounter{subsubsection}{0}
\setcounter{paragraph}{0}
\setcounter{subparagraph}{0}
\setcounter{figure}{0}
\setcounter{table}{0}
\setcounter{parentequation}{0}
\setcounter{lstnumber}{1}
\setcounter{ContinuedFloat}{0}
\setcounter{Item}{0}
\setcounter{Hfootnote}{0}
\setcounter{lstlisting}{0}
\setcounter{section@level}{0}
}
