\relax 
\@writefile{toc}{\contentsline {section}{\numberline {6}Analyzing output}{29}{section.6}}
\newlabel{sectionOutput}{{6}{29}{Analyzing output\relax }{section.6}{}}
\@setckpt{tex/section4}{
\setcounter{page}{30}
\setcounter{equation}{0}
\setcounter{enumi}{0}
\setcounter{enumii}{0}
\setcounter{enumiii}{0}
\setcounter{enumiv}{0}
\setcounter{footnote}{4}
\setcounter{mpfootnote}{0}
\setcounter{part}{0}
\setcounter{section}{6}
\setcounter{subsection}{0}
\setcounter{subsubsection}{0}
\setcounter{paragraph}{0}
\setcounter{subparagraph}{0}
\setcounter{figure}{20}
\setcounter{table}{0}
\setcounter{parentequation}{0}
\setcounter{lstnumber}{1}
\setcounter{ContinuedFloat}{0}
\setcounter{Item}{0}
\setcounter{Hfootnote}{4}
\setcounter{lstlisting}{0}
\setcounter{section@level}{0}
}
