\relax 
\@writefile{lof}{\contentsline {figure}{\numberline {2}{\ignorespaces A MathML expression  representing $\psi /2$\relax }}{9}{figure.caption.3}}
\newlabel{mathmlFig}{{2}{9}{A MathML expression \label {mathmlFig} representing $\psi /2$\relax \relax }{figure.caption.3}{}}
\@writefile{toc}{\contentsline {section}{\numberline {3}Creating a problem}{9}{section.3}}
\newlabel{sectionCase}{{3}{9}{Creating a problem\relax }{section.3}{}}
\citation{cactusWeb}
\citation{SamraiWeb}
\@writefile{toc}{\contentsline {subsection}{\numberline {3.1}Creating a problem skeleton}{10}{subsection.3.1}}
\@writefile{lof}{\contentsline {figure}{\numberline {3}{\ignorespaces New problem \relax }}{11}{figure.caption.4}}
\newlabel{newProblem}{{3}{11}{New problem \label {newProblem}\relax \relax }{figure.caption.4}{}}
\@writefile{lof}{\contentsline {figure}{\numberline {4}{\ignorespaces New problem tabs \relax }}{11}{figure.caption.5}}
\newlabel{newProblemTabs}{{4}{11}{New problem tabs \label {newProblemTabs}\relax \relax }{figure.caption.5}{}}
\@writefile{toc}{\contentsline {subsection}{\numberline {3.2}Problem summary}{11}{subsection.3.2}}
\@writefile{lof}{\contentsline {figure}{\numberline {5}{\ignorespaces Problem summary tab \relax }}{12}{figure.caption.6}}
\newlabel{problemSummaryTabFig}{{5}{12}{Problem summary tab \label {problemSummaryTabFig}\relax \relax }{figure.caption.6}{}}
\@writefile{toc}{\contentsline {subsection}{\numberline {3.3}Basic data}{12}{subsection.3.3}}
\@writefile{lof}{\contentsline {figure}{\numberline {6}{\ignorespaces Problem basic data menu \relax }}{13}{figure.caption.7}}
\newlabel{problemBasicDataMenuFig}{{6}{13}{Problem basic data menu \label {problemBasicDataMenuFig}\relax \relax }{figure.caption.7}{}}
\@writefile{lof}{\contentsline {figure}{\numberline {7}{\ignorespaces Inserting a field name \relax }}{13}{figure.caption.8}}
\newlabel{insertFieldNameFig}{{7}{13}{Inserting a field name \label {insertFieldNameFig}\relax \relax }{figure.caption.8}{}}
\@writefile{lof}{\contentsline {figure}{\numberline {8}{\ignorespaces Defining a standard Cartesian coordinate system \relax }}{14}{figure.caption.9}}
\newlabel{CartesianCoordinateSystemFig}{{8}{14}{Defining a standard Cartesian coordinate system \label {CartesianCoordinateSystemFig}\relax \relax }{figure.caption.9}{}}
\@writefile{lof}{\contentsline {figure}{\numberline {9}{\ignorespaces Editing tensor components \relax }}{15}{figure.caption.10}}
\newlabel{TensorEditionFig}{{9}{15}{Editing tensor components \label {TensorEditionFig}\relax \relax }{figure.caption.10}{}}
\@writefile{toc}{\contentsline {subsection}{\numberline {3.4}Advanced data}{15}{subsection.3.4}}
\@writefile{toc}{\contentsline {subsection}{\numberline {3.5}Models}{15}{subsection.3.5}}
\@writefile{lof}{\contentsline {figure}{\numberline {10}{\ignorespaces Adding models to a problem \relax }}{16}{figure.caption.11}}
\newlabel{addModelsFig}{{10}{16}{Adding models to a problem \label {addModelsFig}\relax \relax }{figure.caption.11}{}}
\@writefile{lof}{\contentsline {figure}{\numberline {11}{\ignorespaces Mapping elements from problem and models\relax }}{17}{figure.caption.12}}
\newlabel{equalitiesFig}{{11}{17}{Mapping elements from problem and models\label {equalitiesFig}\relax \relax }{figure.caption.12}{}}
\@writefile{toc}{\contentsline {subsection}{\numberline {3.6}Segments}{17}{subsection.3.6}}
\newlabel{sec:segments}{{3.6}{17}{Segments\relax }{subsection.3.6}{}}
\@writefile{lof}{\contentsline {figure}{\numberline {12}{\ignorespaces Defining the problem domain \relax }}{19}{figure.caption.13}}
\newlabel{baseSegmentFig}{{12}{19}{Defining the problem domain \label {baseSegmentFig}\relax \relax }{figure.caption.13}{}}
\@writefile{lof}{\contentsline {figure}{\numberline {13}{\ignorespaces Boundary definition example \relax }}{20}{figure.caption.14}}
\newlabel{boundaryDefinitionFig}{{13}{20}{Boundary definition example \label {boundaryDefinitionFig}\relax \relax }{figure.caption.14}{}}
\@writefile{lof}{\contentsline {figure}{\numberline {14}{\ignorespaces Defining the boundary conditions \relax }}{21}{figure.caption.15}}
\newlabel{boundaryConditionsFig}{{14}{21}{Defining the boundary conditions \label {boundaryConditionsFig}\relax \relax }{figure.caption.15}{}}
\@writefile{toc}{\contentsline {subsection}{\numberline {3.7}Conditions}{22}{subsection.3.7}}
\@writefile{toc}{\contentsline {subsection}{\numberline {3.8}Saving and exporting your problem}{22}{subsection.3.8}}
\@setckpt{tex/section1}{
\setcounter{page}{23}
\setcounter{equation}{0}
\setcounter{enumi}{0}
\setcounter{enumii}{0}
\setcounter{enumiii}{0}
\setcounter{enumiv}{0}
\setcounter{footnote}{3}
\setcounter{mpfootnote}{0}
\setcounter{part}{0}
\setcounter{section}{3}
\setcounter{subsection}{8}
\setcounter{subsubsection}{0}
\setcounter{paragraph}{0}
\setcounter{subparagraph}{0}
\setcounter{figure}{14}
\setcounter{table}{0}
\setcounter{parentequation}{0}
\setcounter{lstnumber}{1}
\setcounter{ContinuedFloat}{0}
\setcounter{Item}{0}
\setcounter{Hfootnote}{3}
\setcounter{lstlisting}{0}
\setcounter{section@level}{0}
}
