\relax 
\citation{taxonomy}
\@writefile{lof}{\contentsline {figure}{\numberline {15}{\ignorespaces The discrete problem tabs \relax }}{23}{figure.caption.16}}
\newlabel{discreteProblemTabsFig}{{15}{23}{The discrete problem tabs \label {discreteProblemTabsFig}\relax \relax }{figure.caption.16}{}}
\@writefile{toc}{\contentsline {section}{\numberline {4}Choosing a discretization schema}{23}{section.4}}
\newlabel{sectionDiscretization}{{4}{23}{Choosing a discretization schema\relax }{section.4}{}}
\@writefile{lof}{\contentsline {figure}{\numberline {16}{\ignorespaces Selecting the problem to be discretized \relax }}{24}{figure.caption.17}}
\newlabel{discreteProblemFig}{{16}{24}{Selecting the problem to be discretized \label {discreteProblemFig}\relax \relax }{figure.caption.17}{}}
\@writefile{lof}{\contentsline {figure}{\numberline {17}{\ignorespaces Selecting a discretization schema \relax }}{25}{figure.caption.18}}
\newlabel{selectDiscrSchemaFig}{{17}{25}{Selecting a discretization schema \label {selectDiscrSchemaFig}\relax \relax }{figure.caption.18}{}}
\@setckpt{tex/section2}{
\setcounter{page}{26}
\setcounter{equation}{0}
\setcounter{enumi}{0}
\setcounter{enumii}{0}
\setcounter{enumiii}{0}
\setcounter{enumiv}{0}
\setcounter{footnote}{4}
\setcounter{mpfootnote}{0}
\setcounter{part}{0}
\setcounter{section}{4}
\setcounter{subsection}{0}
\setcounter{subsubsection}{0}
\setcounter{paragraph}{0}
\setcounter{subparagraph}{0}
\setcounter{figure}{17}
\setcounter{table}{0}
\setcounter{parentequation}{0}
\setcounter{lstnumber}{1}
\setcounter{ContinuedFloat}{0}
\setcounter{Item}{0}
\setcounter{Hfootnote}{4}
\setcounter{lstlisting}{0}
\setcounter{section@level}{0}
}
