\relax 
\@writefile{lof}{\contentsline {figure}{\numberline {1}{\ignorespaces Simflowny's login window \relax }}{8}{figure.caption.2}}
\providecommand*\caption@xref[2]{\@setref\relax\@undefined{#1}}
\newlabel{loginWindowFig}{{1}{8}{Simflowny's login window \label {loginWindowFig}\relax \relax }{figure.caption.2}{}}
\@writefile{toc}{\contentsline {section}{\numberline {2}Running Simflowny}{8}{section.2}}
\newlabel{sectionRun}{{2}{8}{Running Simflowny\relax }{section.2}{}}
\@setckpt{tex/section0}{
\setcounter{page}{9}
\setcounter{equation}{0}
\setcounter{enumi}{0}
\setcounter{enumii}{0}
\setcounter{enumiii}{0}
\setcounter{enumiv}{0}
\setcounter{footnote}{0}
\setcounter{mpfootnote}{0}
\setcounter{part}{0}
\setcounter{section}{2}
\setcounter{subsection}{0}
\setcounter{subsubsection}{0}
\setcounter{paragraph}{0}
\setcounter{subparagraph}{0}
\setcounter{figure}{1}
\setcounter{table}{0}
\setcounter{parentequation}{0}
\setcounter{lstnumber}{1}
\setcounter{ContinuedFloat}{0}
\setcounter{Item}{0}
\setcounter{Hfootnote}{0}
\setcounter{lstlisting}{0}
\setcounter{section@level}{0}
}
