\relax 
\citation{xQuery}
\@writefile{toc}{\contentsline {section}{\numberline {8}Advanced modelling: creating new discretization schemas}{36}{section.8}}
\newlabel{sectionSchemas}{{8}{36}{Advanced modelling: creating new discretization schemas\relax }{section.8}{}}
\@writefile{toc}{\contentsline {subsection}{\numberline {8.1}The discretization schema database}{36}{subsection.8.1}}
\@writefile{lof}{\contentsline {figure}{\numberline {24}{\ignorespaces The default discretization schema tree \relax }}{37}{figure.caption.25}}
\newlabel{discretizationSchemaTreeFig}{{24}{37}{The default discretization schema tree \label {discretizationSchemaTreeFig}\relax \relax }{figure.caption.25}{}}
\@writefile{toc}{\contentsline {subsection}{\numberline {8.2}Creating new discretization schemas}{38}{subsection.8.2}}
\@writefile{toc}{\contentsline {subsubsection}{Creating schemas with XML}{38}{section*.26}}
\@writefile{toc}{\contentsline {subsubsection}{Creating schemas with xQuery}{39}{section*.26}}
\newlabel{LastPage}{{8.2}{40}{Creating schemas with xQuery\relax }{section*.26}{}}
\@setckpt{tex/section6}{
\setcounter{page}{41}
\setcounter{equation}{2}
\setcounter{enumi}{0}
\setcounter{enumii}{0}
\setcounter{enumiii}{0}
\setcounter{enumiv}{0}
\setcounter{footnote}{7}
\setcounter{mpfootnote}{0}
\setcounter{part}{0}
\setcounter{section}{8}
\setcounter{subsection}{2}
\setcounter{subsubsection}{0}
\setcounter{paragraph}{0}
\setcounter{subparagraph}{0}
\setcounter{figure}{24}
\setcounter{table}{0}
\setcounter{parentequation}{0}
\setcounter{lstnumber}{10}
\setcounter{ContinuedFloat}{0}
\setcounter{Item}{0}
\setcounter{Hfootnote}{7}
\setcounter{lstlisting}{0}
\setcounter{section@level}{0}
}
