\relax 
\citation{cactusWeb}
\citation{SamraiWeb}
\@writefile{lof}{\contentsline {figure}{\numberline {18}{\ignorespaces The code generation tab \relax }}{26}{figure.caption.19}}
\newlabel{codeGenerationTabFig}{{18}{26}{The code generation tab \label {codeGenerationTabFig}\relax \relax }{figure.caption.19}{}}
\@writefile{toc}{\contentsline {section}{\numberline {5}Running a simulation}{26}{section.5}}
\newlabel{sectionSimulation}{{5}{26}{Running a simulation\relax }{section.5}{}}
\citation{installGuide}
\citation{unicoreInstallGuide}
\@writefile{lof}{\contentsline {figure}{\numberline {19}{\ignorespaces The code editor tab \relax }}{27}{figure.caption.20}}
\newlabel{codeEditorTabFig}{{19}{27}{The code editor tab \label {codeEditorTabFig}\relax \relax }{figure.caption.20}{}}
\@writefile{lof}{\contentsline {figure}{\numberline {20}{\ignorespaces The simulate code tab \relax }}{28}{figure.caption.21}}
\newlabel{simulateCodeTabFig}{{20}{28}{The simulate code tab \label {simulateCodeTabFig}\relax \relax }{figure.caption.21}{}}
\@setckpt{tex/section3}{
\setcounter{page}{29}
\setcounter{equation}{0}
\setcounter{enumi}{0}
\setcounter{enumii}{0}
\setcounter{enumiii}{0}
\setcounter{enumiv}{0}
\setcounter{footnote}{4}
\setcounter{mpfootnote}{0}
\setcounter{part}{0}
\setcounter{section}{5}
\setcounter{subsection}{0}
\setcounter{subsubsection}{0}
\setcounter{paragraph}{0}
\setcounter{subparagraph}{0}
\setcounter{figure}{20}
\setcounter{table}{0}
\setcounter{parentequation}{0}
\setcounter{lstnumber}{1}
\setcounter{ContinuedFloat}{0}
\setcounter{Item}{0}
\setcounter{Hfootnote}{4}
\setcounter{lstlisting}{0}
\setcounter{section@level}{0}
}
