\relax 
\@writefile{lof}{\contentsline {figure}{\numberline {21}{\ignorespaces The model list tab \relax }}{30}{figure.caption.22}}
\newlabel{modelListTabFig}{{21}{30}{The model list tab \label {modelListTabFig}\relax \relax }{figure.caption.22}{}}
\@writefile{toc}{\contentsline {section}{\numberline {7}Advanced modelling: creating new physical models}{30}{section.7}}
\newlabel{sectionModels}{{7}{30}{Advanced modelling: creating new physical models\relax }{section.7}{}}
\@writefile{toc}{\contentsline {subsection}{\numberline {7.1}Basic model edition}{31}{subsection.7.1}}
\@writefile{lof}{\contentsline {figure}{\numberline {22}{\ignorespaces The model summary tab \relax }}{32}{figure.caption.23}}
\newlabel{modelSummaryTabFig}{{22}{32}{The model summary tab \label {modelSummaryTabFig}\relax \relax }{figure.caption.23}{}}
\@writefile{toc}{\contentsline {subsection}{\numberline {7.2}Constraints}{33}{subsection.7.2}}
\@writefile{toc}{\contentsline {subsection}{\numberline {7.3}Advanced}{33}{subsection.7.3}}
\newlabel{subsec:advanced}{{7.3}{33}{Advanced\relax }{subsection.7.3}{}}
\@writefile{toc}{\contentsline {subsection}{\numberline {7.4}Tensorial model edition}{34}{subsection.7.4}}
\@writefile{lof}{\contentsline {figure}{\numberline {23}{\ignorespaces Adding a tensorial field \relax }}{35}{figure.caption.24}}
\newlabel{addTensorial}{{23}{35}{Adding a tensorial field \label {addTensorial}\relax \relax }{figure.caption.24}{}}
\@setckpt{tex/section5}{
\setcounter{page}{36}
\setcounter{equation}{2}
\setcounter{enumi}{0}
\setcounter{enumii}{0}
\setcounter{enumiii}{0}
\setcounter{enumiv}{0}
\setcounter{footnote}{4}
\setcounter{mpfootnote}{0}
\setcounter{part}{0}
\setcounter{section}{7}
\setcounter{subsection}{4}
\setcounter{subsubsection}{0}
\setcounter{paragraph}{0}
\setcounter{subparagraph}{0}
\setcounter{figure}{23}
\setcounter{table}{0}
\setcounter{parentequation}{0}
\setcounter{lstnumber}{10}
\setcounter{ContinuedFloat}{0}
\setcounter{Item}{0}
\setcounter{Hfootnote}{4}
\setcounter{lstlisting}{0}
\setcounter{section@level}{0}
}
