\relax 
\ifx\hyper@anchor\@undefined
\global \let \oldcontentsline\contentsline
\gdef \contentsline#1#2#3#4{\oldcontentsline{#1}{#2}{#3}}
\global \let \oldnewlabel\newlabel
\gdef \newlabel#1#2{\newlabelxx{#1}#2}
\gdef \newlabelxx#1#2#3#4#5#6{\oldnewlabel{#1}{{#2}{#3}}}
\AtEndDocument{\let \contentsline\oldcontentsline
\let \newlabel\oldnewlabel}
\else
\global \let \hyper@last\relax 
\fi

\@input{tex/introduction.aux}
\@input{tex/section1.aux}
\@input{tex/section2.aux}
\@input{tex/section3.aux}
\bibstyle{alpha}
\bibdata{../biblio}
\bibcite{cactusWeb}{cac09}
\bibcite{usersGuide}{IAC11}
\bibcite{SamraiWeb}{Sam09}
\bibcite{unicoreInstallGuide}{Uni11}
\@writefile{toc}{\contentsline {section}{References}{11}{section.4}}
